09/27/21 23:04

specs.py has not been modified yet

-------------------------------------------------------------------------------

09/30/21 15:16

specs.py has not been modified yet

-------------------------------------------------------------------------------

