10/29/21 22:25

breadth_first_search.py has not been modified yet

-------------------------------------------------------------------------------

11/02/21 10:04

breadth_first_search.py has not been modified yet

-------------------------------------------------------------------------------

11/04/21 10:05

Problem 1 (5 points):
Score += 5

Problem 2 (10 points):
Score += 10

Problem 3 (10 points):
Score += 10

Problem 5 (10 points):
MovieGraph.path_to_actor() failed
Score += 8

Problem 6 (10 points):
MovieGraph.average_number('Kevin Bacon') failed
Score += 5

Code Quality (5 points):
Score += 5

Total score: 43/50 = 86.0%

-------------------------------------------------------------------------------

