2013-07-02 ./Fourier2/tada-conv.wav
2013-08-14 ./Fourier2/white.wav
2014-08-02 ./Fourier1/tada.wav
2014-08-07 ./Fourier1/pulseramp.wav
2014-08-09 ./DataStruct1/Feedback.txt
2014-08-13 ./DataStruct2/Trees.pyc
2014-08-13 ./DataStruct2/WordList.py
2014-10-01 ./Bacon/movieData.txt
2015-06-02 ./DataStruct2/English.txt
2015-06-02 ./DataStruct2/Node.pyc
2015-06-02 ./DataStruct2/_Feedback.txt.swp
2015-06-02 ./DataStruct2/figure_2.png
2015-06-02 ./DataStruct2/linkedlist.py
2015-06-02 ./DataStruct2/solutions.pyc
2015-06-02 ./DataStruct2/timings.ipynb
2015-06-02 ./Fourier1/Untitled.ipynb
2015-06-02 ./Fourier1/ceg.wav
2015-06-02 ./RSA/RSA.py
2015-06-02 ./RSA/lab3.pdf
2015-06-02 ./RSA/rsa_tools.pyc
2015-06-10 ./DataStruct2/Node.py
2015-06-11 ./Fourier1/output.wav
2015-07-01 ./Fourier2/cleansig2.wav
2015-07-02 ./DataStruct2/__MACOSX/__English.txt
2015-07-02 ./DataStruct2/__MACOSX/__spec.py
2015-07-02 ./DataStruct2/solutions.py
2015-07-02 ./DataStruct2/times.pdf
2015-07-02 ./Fourier2/Noisysignal2.wav
2015-07-02 ./RSA/ExEucAlg.py
2015-07-02 ./RSA/solutions.py.save
2015-07-13 ./DataStruct2/__MACOSX/__Trees.py
2015-07-13 ./DataStruct2/__MACOSX/__WordList.py
2015-07-13 ./Fourier2/my_tada_conv.wav
2015-07-13 ./Fourier2/solutions.py
2015-07-14 ./Fourier2/output.wav
2015-07-14 ./RSA/Untitled.ipynb
2015-07-14 ./RSA/solutions.pyc
2015-07-22 ./Fourier2/balloon.wav
2015-07-31 ./Bacon/KBacon.pdf
2015-07-31 ./Bacon/bacon_data.py
2015-08-01 ./DataStruct1/Lab4_data.py
2015-08-01 ./DataStruct1/data.txt
2015-08-01 ./DataStruct1/my_solutions.pyc
2015-08-01 ./DataStruct1/one_lab.pdf
2015-08-01 ./RSA/ExEucAlg.pyc
2015-08-01 ./RSA/RSA.pyc
2015-08-02 ./DataStruct2/Trees.py
2015-08-02 ./Fourier1/chord.wav
2015-08-02 ./Fourier1/fft_outline.py
2015-08-02 ./Fourier1/good_down_saw.wav
2015-08-02 ./Fourier1/ig
2015-08-02 ./Fourier1/pianoclip.wav
2015-08-02 ./Fourier1/saw.wav
2015-08-02 ./Fourier1/solutions.py
2015-08-02 ./Fourier1/solutions.pyc
2015-08-02 ./Fourier2/Noisysignal1.wav
2015-08-02 ./Fourier2/chopin_conv.wav
2015-08-02 ./Fourier2/ipython_session.py
2015-08-02 ./Fourier2/mono_conv.wav
2015-08-02 ./Fourier2/tada.wav
2015-08-02 ./Fourier2/test_conv.wav
2015-08-02 ./RSA/.ipynb_checkpoints/Untitled-checkpoint.ipynb
2015-08-02 ./RSA/lab3_spec.py
2015-08-02 ./RSA/rsa_tools.py
2015-08-02 ./RSA/solutions.py
2015-08-07 ./Fourier1/.ipynb_checkpoints/Untitled-checkpoint.ipynb
2015-08-07 ./Fourier1/fft_outline.pyc
2015-08-08 ./Fourier2/Feedback.txt
2015-08-09 ./DataStruct1/Lab4_data.pyc
2015-08-09 ./DataStruct1/Node.pyc
2015-08-09 ./DataStruct1/my_solutions.py
2015-08-10 ./DataStruct2/.ipynb_checkpoints/timings-checkpoint.ipynb
2015-08-10 ./DataStruct2/Feedback.txt
2015-08-10 ./DataStruct2/figure_1.png
2015-08-10 ./DataStruct2/linkedlist.pyc
2015-08-11 ./Fourier1/low_down_saw.wav
2015-08-13 ./Bacon/bacon_data.pyc
2015-08-13 ./Bacon/spec.py
2015-08-13 ./Bacon/spec.pyc
2015-08-13 ./DataStruct2/WordList.pyc
2015-08-13 ./Fourier2/outline.py
2015-08-13 ./Fourier2/tada_session.py
2015-08-14 ./Fourier1/down_saw.wav
2015-08-14 ./Fourier1/unit_circle.npz
2015-08-14 ./Fourier2/_Feedback.txt.swp
2015-08-14 ./Fourier2/chopinw.wav
2015-08-18 ./Bacon/Feedback.txt
2015-08-22 ./Fourier2/guitar-conv.mp3
2015-08-22 ./Fourier2/messing.wav
2015-08-22 ./Fourier2/solutions.pyc
2015-08-23 ./DataStruct2/BSTree.pdf
2015-08-23 ./DataStruct2/spec.py
